^C:\USERS\ВАЛЕНТИН\DOCUMENTS\VISUAL STUDIO 2013\PROJECTS\ARMY3\APPLICATION\STDAFX.CPP
/c /ZI /nologo /W3 /WX- /sdl /Od /Oy- /D WIN32 /D _DEBUG /D _CONSOLE /D _LIB /D _UNICODE /D UNICODE /Gm /EHsc /RTC1 /MTd /GS /fp:precise /Zc:wchar_t /Zc:forScope /Yc"stdafx.h" /Fp"DEBUG\APPLICATION.PCH" /Fo"DEBUG\\" /Fd"DEBUG\VC120.PDB" /Gd /TP /analyze- C:\USERS\ВАЛЕНТИН\DOCUMENTS\VISUAL STUDIO 2013\PROJECTS\ARMY3\APPLICATION\STDAFX.CPP
^C:\USERS\ВАЛЕНТИН\DOCUMENTS\VISUAL STUDIO 2013\PROJECTS\ARMY3\APPLICATION\APPLICATION.CPP
/c /ZI /nologo /W3 /WX- /sdl /Od /Oy- /D WIN32 /D _DEBUG /D _CONSOLE /D _LIB /D _UNICODE /D UNICODE /Gm /EHsc /RTC1 /MTd /GS /fp:precise /Zc:wchar_t /Zc:forScope /Yu"stdafx.h" /Fp"DEBUG\APPLICATION.PCH" /Fo"DEBUG\\" /Fd"DEBUG\VC120.PDB" /Gd /TP /analyze- C:\USERS\ВАЛЕНТИН\DOCUMENTS\VISUAL STUDIO 2013\PROJECTS\ARMY3\APPLICATION\APPLICATION.CPP
